%YAML 1.1
%TAG !u! tag:unity3d.com,2011:
--- !u!114 &11400000
MonoBehaviour:
  m_ObjectHideFlags: 0
  m_PrefabParentObject: {fileID: 0}
  m_PrefabInternal: {fileID: 0}
  m_GameObject: {fileID: 0}
  m_Enabled: 1
  m_EditorHideFlags: 0
  m_Script: {fileID: 11500000, guid: b390df175666a8340a2a9d6bda0b23e3, type: 3}
  m_Name: Level-1-Miniboss-Rat
  m_EditorClassIdentifier: 
  name: Leader of the Rat people
  description: 
  cards:
  - {fileID: 11400000, guid: ef493d740959ba1438b013c8866c85f3, type: 2}
  - {fileID: 11400000, guid: 619c141a452939643bcf19e3091c2b00, type: 2}
  - {fileID: 11400000, guid: 409700fffd5f8bc4a865ee5c79fe1ef6, type: 2}
  - {fileID: 11400000, guid: 83e8f1d5c5a53324299d75c0a1c7bfa1, type: 2}
  baseHealthPoints: 1500
  foodResource: {fileID: 11400000, guid: 5d101f9d682c2f84e9f808ccbfc3f846, type: 2}
  spellResource: {fileID: 11400000, guid: 4868585851ce6b1468a5509e31c7b8ba, type: 2}
