%YAML 1.1
%TAG !u! tag:unity3d.com,2011:
--- !u!114 &11400000
MonoBehaviour:
  m_ObjectHideFlags: 0
  m_PrefabParentObject: {fileID: 0}
  m_PrefabInternal: {fileID: 0}
  m_GameObject: {fileID: 0}
  m_Enabled: 1
  m_EditorHideFlags: 0
  m_Script: {fileID: 11500000, guid: 8c8418c0d01249648844de42258014f7, type: 3}
  m_Name: SimpleHealSpell
  m_EditorClassIdentifier: 
  name: Lesser Healing
  unlocked: 0
  baseCost: 15
  description: 
  defaultSprite: {fileID: 21300000, guid: e44c4e437bb6a8443a95a9e9fe64e459, type: 3}
  cardSprite: {fileID: 21300000, guid: d3ae919e7746ece4290310cba31135de, type: 3}
  colliderOffset: {x: 0, y: 0}
  colliderSize: {x: 0, y: 0}
  spriteScale: {x: 0, y: 0, z: 0}
  baseRadius: 4
  baseSpeed: 50
  prefab: {fileID: 1737356780421164, guid: a481fc4a8ffb64d4c907b2cb981ff88b, type: 2}
  affectedLayers: 00000000
  baseHeal: 100
