%YAML 1.1
%TAG !u! tag:unity3d.com,2011:
--- !u!114 &11400000
MonoBehaviour:
  m_ObjectHideFlags: 0
  m_PrefabParentObject: {fileID: 0}
  m_PrefabInternal: {fileID: 0}
  m_GameObject: {fileID: 0}
  m_Enabled: 1
  m_EditorHideFlags: 0
  m_Script: {fileID: 11500000, guid: 2cc0ee096d86a7448a01b1163dbc863a, type: 3}
  m_Name: Campaign-1-Necromancer
  m_EditorClassIdentifier: 
  name: The Necromancer
  description: You want to kill the necromancer.
  sprite: {fileID: 21300000, guid: 11ce7c35a09ff174d99c08a56cd18e4a, type: 3}
  levels:
  - {fileID: 11400000, guid: 843abdbd036d25f43b2f3c3390e9ebb8, type: 2}
  unlocks:
  - {fileID: 11400000, guid: 7bb063367ed37d5498f248966407d19f, type: 2}
  unlocked: 1
  beaten: 0
