%YAML 1.1
%TAG !u! tag:unity3d.com,2011:
--- !u!114 &11400000
MonoBehaviour:
  m_ObjectHideFlags: 0
  m_PrefabParentObject: {fileID: 0}
  m_PrefabInternal: {fileID: 0}
  m_GameObject: {fileID: 0}
  m_Enabled: 1
  m_EditorHideFlags: 0
  m_Script: {fileID: 11500000, guid: f984eef11f8e3454a806e8a3c8eb873f, type: 3}
  m_Name: Troll_Grunt
  m_EditorClassIdentifier: 
  name: Troll Grunt
  unlocked: 0
  baseCost: 6
  description: 
  defaultSprite: {fileID: 21300000, guid: 1ef9d19813e9f13498b4d5a2ab4f184c, type: 3}
  cardSprite: {fileID: 21300000, guid: 78a1ac7d13a295d49aa7fb40e418dfd3, type: 3}
  colliderOffset: {x: -7.6, y: 0.6}
  colliderSize: {x: 11, y: 15.77}
  spriteScale: {x: 0.2, y: 0.2, z: 1}
  baseHealthPoints: 500
  baseAttackPoints: 50
  baseMovementSpeed: 1
  baseAttackRange: 1
  baseAttackSpeed: 1
  healthbar: {fileID: 11400000, guid: 726399ebc6599584aa95e4f82eb73dae, type: 2}
  prefab: {fileID: 1065012233771874, guid: e80f55aa33cf0fa46916df881beb4f15, type: 2}
