%YAML 1.1
%TAG !u! tag:unity3d.com,2011:
--- !u!114 &11400000
MonoBehaviour:
  m_ObjectHideFlags: 0
  m_PrefabParentObject: {fileID: 0}
  m_PrefabInternal: {fileID: 0}
  m_GameObject: {fileID: 0}
  m_Enabled: 1
  m_EditorHideFlags: 0
  m_Script: {fileID: 11500000, guid: f984eef11f8e3454a806e8a3c8eb873f, type: 3}
  m_Name: PrototypeRangedUnit
  m_EditorClassIdentifier: 
  name: PrototypeRangedUnit
  baseCost: 0
  description: This is the prototype unit.
  defaultSprite: {fileID: 21300000, guid: d83c0cc1734d545428af8217742bdbb1, type: 3}
  prefab: {fileID: 0}
  cast:
    m_PersistentCalls:
      m_Calls: []
    m_TypeName: UnityEngine.Events.UnityEvent, UnityEngine, Version=0.0.0.0, Culture=neutral,
      PublicKeyToken=null
  hover:
    m_PersistentCalls:
      m_Calls: []
    m_TypeName: UnityEngine.Events.UnityEvent, UnityEngine, Version=0.0.0.0, Culture=neutral,
      PublicKeyToken=null
  baseHealthPoints: 250
  baseAttackPoints: 100
  baseMovementSpeed: 4
  baseAttackRange: 5
  baseAttackSpeed: 1
  healthbar: {fileID: 11400000, guid: 11ad268e8a4fd2b48a1bce7eb5e53700, type: 2}
